        -:    0:Source:mocks_lib/SoftwareSerial_mock.cpp
        -:    0:Programs:3
        -:    1:#include "SoftwareSerial_mock.h"
        -:    2:
function _ZN14SoftwareSerialC2Eii called 1 returned 100% blocks executed 100%
        1:    3:SoftwareSerial::SoftwareSerial(int receivePin, int transmitPin){
        1:    4: return;
        -:    5:}
        -:    6:
function _ZN14SoftwareSerialD2Ev called 1 returned 100% blocks executed 100%
        1:    7:SoftwareSerial::~SoftwareSerial(){
        1:    8:  return;
        1:    9:}
